<svg xmlns="http://www.w3.org/2000/svg" width="38.68" height="62" viewBox="0 0 38.68 62">
  <g id="ETH62" transform="translate(0 0)">
    <path id="Trazado_1903" data-name="Trazado 1903" d="M.09,33.046c-.14-.106,0-.173.042-.243Q4.5,25.545,8.882,18.281,14.051,9.7,19.241,1.116c.047-.076.034-.22.184-.209a.039.039,0,0,1,.028.022.2.2,0,0,1,.011.036,6.831,6.831,0,0,1,.061,1.273V23.349a3.4,3.4,0,0,1-.034.734c-.051.2-.218.279-.383.352-1.783.8-3.555,1.611-5.33,2.417L8.241,29.367c-2.182.99-4.364,1.992-6.561,2.975C1.152,32.579.634,32.844.09,33.046Z" transform="translate(-0.029 -0.906)" fill="#8b8b8b"/>
    <path id="Trazado_1904" data-name="Trazado 1904" d="M124.11,24.514c0-.168.014-.335.014-.5q0-11.128.009-22.254c0-.156-.075-.337.073-.477q9.519,15.8,19.032,31.611c.081.136.348.263.129.494-1.978-.951-3.99-1.828-5.985-2.743q-2.71-1.247-5.428-2.469l-6.486-2.952a13.824,13.824,0,0,1-1.3-.609A.187.187,0,0,1,124.11,24.514Z" transform="translate(-104.772 -1.222)" fill="#303030"/>
    <path id="Trazado_1905" data-name="Trazado 1905" d="M.42,159.208c.125-.228.376-.26.578-.352q7.269-3.313,14.542-6.611L19.7,150.36l.031.028a1.106,1.106,0,0,1,.12.748v18.875a2.3,2.3,0,0,1-.048.538c-.167.137-.263-.042-.363-.1q-8.163-4.816-16.321-9.644Z" transform="translate(-0.359 -127.068)" fill="#353535"/>
    <path id="Trazado_1906" data-name="Trazado 1906" d="M124.3,170.7c-.114-.084-.083-.209-.083-.321q0-9.9.008-19.8a.3.3,0,0,1,0-.037c.884.323,1.714.753,2.576,1.136q3.754,1.688,7.5,3.4c1.559.709,3.117,1.428,4.676,2.138,1.382.623,2.768,1.247,4.15,1.889.129.059.312.076.33.281l-5.21,3.1q-6.857,4.052-13.707,8.1C124.462,170.624,124.381,170.66,124.3,170.7Z" transform="translate(-104.86 -127.219)" fill="#0c0c0c"/>
    <path id="Trazado_1907" data-name="Trazado 1907" d="M19.82,251.486c-.176.182-.178-.056-.217-.109q-2.71-3.8-5.408-7.607Q7.4,234.2.616,224.634c-.053-.073-.1-.156-.156-.246.156-.033.248.079.348.139q9.286,5.483,18.568,10.972a.716.716,0,0,0,.457.179.7.7,0,0,1,.053.377q-.009,7.336,0,14.67a5.071,5.071,0,0,1-.065.761Z" transform="translate(-0.393 -189.553)" fill="#8b8b8b"/>
    <path id="Trazado_1908" data-name="Trazado 1908" d="M124.186,251.256c-.139-.094-.078-.235-.078-.354V235.846a.57.57,0,0,1,.087-.405l19.179-11.33.051.05c-.3.422-.6.846-.9,1.267Z" transform="translate(-104.759 -189.324)" fill="#303030"/>
  </g>
</svg>
