<svg id="icono_google" xmlns="http://www.w3.org/2000/svg" width="24" height="24" viewBox="0 0 24 24">
  <g id="facebook_1_" data-name="facebook (1)">
    <path id="Trazado_1136" data-name="Trazado 1136" d="M5.112,14.191l-.8,3-2.935.062A11.553,11.553,0,0,1,1.29,6.481h0L3.9,6.96l1.144,2.6a6.883,6.883,0,0,0,.065,4.634Z" transform="translate(0 0.221)" fill="#fbbb00"/>
    <path id="Trazado_1137" data-name="Trazado 1137" d="M23.342,9.758A11.528,11.528,0,0,1,19.23,20.906h0l-3.291-.168-.466-2.907a6.873,6.873,0,0,0,2.957-3.51H12.264V9.758H23.342Z" transform="translate(0.457 0.555)" fill="#518ef8"/>
    <path id="Trazado_1138" data-name="Trazado 1138" d="M18.808,21.09h0A11.537,11.537,0,0,1,1.43,17.563L5.168,14.5a6.859,6.859,0,0,0,9.884,3.512Z" transform="translate(-0.056 0.37)" fill="#28b446"/>
    <path id="Trazado_1139" data-name="Trazado 1139" d="M18.946,2.655,15.21,5.714A6.858,6.858,0,0,0,5.1,9.3L1.342,6.229h0a11.535,11.535,0,0,1,17.6-3.574Z" transform="translate(-0.052)" fill="#f14336"/>
  </g>
</svg>
