<svg xmlns="http://www.w3.org/2000/svg" width="36" height="36.001" viewBox="0 0 36 36.001">
  <g id="escanear40" transform="translate(0.5 0.5)">
    <path id="Trazado_1912" data-name="Trazado 1912" d="M1.113,9.818A.684.684,0,0,0,1.8,9.135V2.567H8.359a.684.684,0,1,0,0-1.367H1.113a.684.684,0,0,0-.684.684V9.13a.684.684,0,0,0,.684.688Z" transform="translate(-0.43 -1.2)" fill="#3395ff" stroke="#3395fc" stroke-width="1"/>
    <path id="Trazado_1913" data-name="Trazado 1913" d="M9.043,296.33a.685.685,0,0,0-.684-.685H1.8v-6.562a.684.684,0,0,0-1.367,0v7.246a.685.685,0,0,0,.684.684H8.359A.685.685,0,0,0,9.043,296.33Z" transform="translate(-0.43 -262.013)" fill="#3395ff" stroke="#3395fc" stroke-width="1"/>
    <path id="Trazado_1914" data-name="Trazado 1914" d="M295.789,288.4a.684.684,0,0,0-.684.684v6.562h-6.563a.684.684,0,0,0,0,1.368h7.246a.684.684,0,0,0,.684-.684v-7.246a.684.684,0,0,0-.684-.684Z" transform="translate(-261.472 -262.013)" fill="#3395ff" stroke="#3395fc" stroke-width="1"/>
    <path id="Trazado_1915" data-name="Trazado 1915" d="M295.55,1.2H288.3a.684.684,0,0,0,0,1.367h6.563V9.13a.684.684,0,1,0,1.367,0V1.884A.684.684,0,0,0,295.55,1.2Z" transform="translate(-261.233 -1.2)" fill="#3395ff" stroke="#3395fc" stroke-width="1"/>
    <path id="Trazado_1916" data-name="Trazado 1916" d="M35.3,186.1H1.944a.684.684,0,1,1,0-1.367H35.3a.684.684,0,1,1,0,1.367Z" transform="translate(-1.184 -167.868)" fill="#3395ff" stroke="#3395fc" stroke-width="1"/>
  </g>
</svg>
