<svg xmlns="http://www.w3.org/2000/svg" xmlns:xlink="http://www.w3.org/1999/xlink" width="54" height="54" viewBox="0 0 54 54">
  <defs>
    <filter id="Trazado_240" x="0" y="0" width="54" height="54" filterUnits="userSpaceOnUse">
      <feOffset dx="3" dy="3" input="SourceAlpha"/>
      <feGaussianBlur stdDeviation="5" result="blur"/>
      <feFlood flood-color="#b5b5b5" flood-opacity="0.82"/>
      <feComposite operator="in" in2="blur"/>
      <feComposite in="SourceGraphic"/>
    </filter>
  </defs>
  <g id="twinbusiness_logo" data-name="twinbusiness logo" transform="translate(12 12)">
    <g transform="matrix(1, 0, 0, 1, -12, -12)" filter="url(#Trazado_240)">
      <path id="Trazado_240-2" data-name="Trazado 240" d="M733.534,177.579c0-.008.006-.016.009-.025a3.575,3.575,0,0,0,.167-.851,3.013,3.013,0,0,0-.7-2.193,2.935,2.935,0,0,0-2.165-.972c-.086,0-.172,0-.257.01a11.994,11.994,0,1,0-15.8,18.046,2.9,2.9,0,0,0,.743,1.821,2.968,2.968,0,0,0,2.286.74c.1,0,.195,0,.283-.014a2.6,2.6,0,0,0,.368-.065,1.905,1.905,0,0,0,.523-.151,11.95,11.95,0,0,0,3.588.548,13.3,13.3,0,0,0,5.309-1.225,12.926,12.926,0,0,0,4.449.777h0a9.4,9.4,0,0,0,1.1-.055.922.922,0,0,0,.418-1.667,9.377,9.377,0,0,1-1.372-3.057,11.995,11.995,0,0,0,1.049-11.67Zm-.666-.478c-.007-.012-.014-.027-.023-.043L732.81,177a.9.9,0,0,0-.115-.132,1.015,1.015,0,0,0-.178-.133,1.086,1.086,0,0,0-.234-.108.963.963,0,0,0-.137-.038,1.761,1.761,0,0,0-1.122.252,10.139,10.139,0,0,1-.285,11.678.923.923,0,0,0-.153.78,18.278,18.278,0,0,0,1.028,2.858,10.689,10.689,0,0,1-3.408-.767.923.923,0,0,0-.768.027,11.569,11.569,0,0,1-4.858,1.21,10.09,10.09,0,0,1-4.237-.928l0,0a1.343,1.343,0,0,0-.386.826,1.265,1.265,0,0,0,0,.161,1.241,1.241,0,0,0,.054.285,1.166,1.166,0,0,0,.1.232c.021.037.043.07.065.1l-.247-.138-.008,0a1.282,1.282,0,0,1-.079-.106,1.546,1.546,0,0,1-.1-.183c-.019-.039-.037-.077-.054-.119a1.668,1.668,0,0,1-.1-.377c0-.035-.007-.069-.011-.1s0-.078,0-.117c0-.022,0-.036,0-.052l0-.047v-.017l0-.011v-.007l0-.027.008-.056a2.587,2.587,0,0,1,.57-1.173c.125-.16.519-.591.772-.855l.2-.2,0,0c.794-.7,1.578-1.338,2.437-1.989.168-.127.325-.245.474-.355l.544,2.331a.528.528,0,0,0,1.029,0c0-.012.005-.023.007-.036l.887-5.78a.519.519,0,0,0-.109-.408.526.526,0,0,0-.373-.2l-5.829-.451a.529.529,0,0,0-.55.387.435.435,0,0,0-.015.079.53.53,0,0,0,.29.534l2.044,1.01-.431.362c-.613.522-1.155,1.007-1.659,1.485-.69.657-1.838,1.9-1.914,2.031a6.951,6.951,0,0,0-.614.885A10.148,10.148,0,0,1,728.4,174.162c-.241.107-.488.225-.746.358a23.76,23.76,0,0,0-2.278,1.359c-.583.389-1.183.816-1.834,1.3q-.242.181-.453.344l-.54-2.242a.534.534,0,0,0-.461-.406.468.468,0,0,0-.082,0,.534.534,0,0,0-.5.455l-.857,5.851a.538.538,0,0,0,.112.412.525.525,0,0,0,.379.2l5.9.415h.038a.534.534,0,0,0,.233-1.014l-2.177-1.057q.212-.183.455-.389c.577-.486,1.106-.91,1.619-1.3a20.527,20.527,0,0,1,1.907-1.292c.186-.109.362-.207.532-.3l.2-.107.013-.006c.238-.132.486-.26.733-.368a3.347,3.347,0,0,1,.346-.132c.062-.02.123-.038.188-.052s.13-.027.2-.039a1.655,1.655,0,0,1,.4-.012l.05,0,.024,0h.017l.014,0,.041.009.045.01c.034.009.07.017.1.027l.088.032a1.444,1.444,0,0,1,.3.168,1.353,1.353,0,0,1,.225.2,1.131,1.131,0,0,1,.148.2,1.01,1.01,0,0,1,.078.172l.019.066c0,.02.007.037.009.05l.008.04Z" transform="translate(-698.58 -158.48)" fill="#3395ff"/>
    </g>
  </g>
</svg>
